................
----------------------------------------------------------------------
Ran 16 tests in 0.002s

OK
Name               Stmts   Miss Branch BrPart  Cover   Missing
--------------------------------------------------------------
Diplomacy.py          72      0     58      0   100%
TestDiplomacy.py      74      0      2      1    99%   159->exit
--------------------------------------------------------------
TOTAL                146      0     60      1    99%
