.....
----------------------------------------------------------------------
Ran 5 tests in 0.001s

OK
Name               Stmts   Miss Branch BrPart  Cover   Missing
--------------------------------------------------------------
Diplomacy.py          89     20     58      5    78%   76-77, 83, 101, 142-153, 165-182, 41->44, 75->76, 81->83, 98->101, 124->142
TestDiplomacy.py      31      0      0      0   100%
--------------------------------------------------------------
TOTAL                120     20     58      5    81%
