...
----------------------------------------------------------------------
Ran 3 tests in 0.002s

OK
Name               Stmts   Miss Branch BrPart  Cover   Missing
--------------------------------------------------------------
Diplomacy.py          60      1     40      3    96%   10, 8->10, 55->48, 56->55
TestDiplomacy.py      21      0      0      0   100%
--------------------------------------------------------------
TOTAL                 81      1     40      3    97%
