...
----------------------------------------------------------------------
Ran 3 tests in 0.001s

OK
Name               Stmts   Miss Branch BrPart  Cover   Missing
--------------------------------------------------------------
Diplomacy.py          71      2     38      6    93%   94, 98, 62->46, 67->75, 71->70, 92->85, 93->94, 97->98
TestDiplomacy.py      21      0      0      0   100%
--------------------------------------------------------------
TOTAL                 92      2     38      6    94%
